OSMtidy - Vignette 2, Walkthrough
…
dlFilter %>% dataSummary
#> `summarise()` ungrouping output (override with `.groups` argument)
#> `summarise()` ungrouping output (override with `.groups` argument)
#> `summarise()` ungrouping output (override with `.groups` argument)
#> $class
#> [1] "list"               "OSMtidy_dataFilter"
#> 
#> $summary
#>         data total percent
#> 1   filtered 12194   71.44
#> 2 unfiltered   562    3.29
#> 3   validate  4314   25.27
#> 
#> $summaryFiltered
#> # A tibble: 176 x 2
#>    desc                           total
#>    <chr>                          <int>
#>  1 Amenity; ATM                      14
#>  2 Amenity; Bicycle parking          49
#>  3 Amenity; Bike rental point         6
#>  4 Amenity; Car wash                  2
#>  5 Amenity; Fire hydrant             64
#>  6 Amenity; Flood defence             2
#>  7 Amenity; Fountain (decorative)     1
#>  8 Amenity; Fuel station              1
#>  9 Amenity; Garages and sheds       325
#> 10 Amenity; Information board         1
#> # ... with 166 more rows
…
#> `summarise()` ungrouping output (override with `.groups` argument)
#> $class
#> [1] "list"             "OSMtidy_dataTidy"
#> 
#> $summary
#> # A tibble: 4 x 3
#>   data                 total percent
#>   <chr>                <int>   <dbl>
#> 1 unfiltered             569    3.33
#> 2 removeKeywordFilters    37    0.22
#> 3 remove                 300    1.76
#> 4 filtered             16164   94.7 
#> 
#> $summaryFiltered
#> # A tibble: 190 x 2
#>    desc                           total
#>    <chr>                          <int>
#>  1 Amenity; ATM                      14
#>  2 Amenity; Bicycle parking          49
#>  3 Amenity; Bike rental point         6
#>  4 Amenity; Car wash                  2
#>  5 Amenity; Fire hydrant             64
#>  6 Amenity; Flood defence             2
#>  7 Amenity; Fountain (decorative)     1
#>  8 Amenity; Fuel station              1
#>  9 Amenity; Garages and sheds       325
#> 10 Amenity; Information board         1
#> # ... with 180 more rows
#> 
#> $unfiltered
#> # A tibble: 5 x 2
#>   feature  total
#>   <chr>    <int>
#> 1 amenity      1
#> 2 building   531
#> 3 highway      6
#> 4 landuse     12
#> 5 <NA>        19

dlTidy$filtered
#> # A tibble: 16,164 x 3
#>    osm_id   desc                                                        geometry
#>    <chr>    <chr>                                                 <GEOMETRY [°]>
#>  1 3195818~ Amenity; Floo~ MULTILINESTRING ((-3.199711 55.9629, -3.199508 55.96~
#>  2 3343407~ Barrier; Wall  LINESTRING (-3.167914 55.96796, -3.16797 55.96798, -~
#>  3 3418179~ Barrier; Wall  LINESTRING (-3.199838 55.96309, -3.199801 55.96312, ~
#>  4 3418179~ Barrier; Wall     LINESTRING (-3.199572 55.9636, -3.199394 55.96358)
#>  5 3418179~ Barrier; Wall      LINESTRING (-3.199402 55.96393, -3.19923 55.9639)
#>  6 3418179~ Barrier; Wall    LINESTRING (-3.199641 55.96347, -3.199465 55.96344)
#>  7 3418179~ Barrier; Wall    LINESTRING (-3.199203 55.96431, -3.199179 55.96431)
#>  8 3418180~ Barrier; Wall    LINESTRING (-3.199269 55.96418, -3.199168 55.96417)
#>  9 3418180~ Barrier; Wall    LINESTRING (-3.199607 55.96354, -3.199422 55.96351)
#> 10 3418180~ Barrier; Wall    LINESTRING (-3.199435 55.96386, -3.199261 55.96384)
#> # ... with 16,154 more rows
…
