OSMtidy - Vignette 5, Post-processing
…
exportOSMtidy() exports the post-processed data as a spreadsheet, an RDS file or a series of shapefiles

This vignette will walk through these functions for two cities: Manchester and Edinburgh. These inputs are available in the folder vignettes/files/postProcessing.

2. Example one - Manchester

file <- list.files("vignettes/files/postProcessing", pattern = "Manchester", full.names = TRUE)
file
#> [1] "vignettes/files/postProcessing/Manchester_City_6_dataTidy-filtered_20200712-170959.RDS"

# Read RDS files into R using the base R function readRDS()
dm <- readRDS(file)
dm
#> # A tibble: 58,824 x 3
#>    osm_id   desc                                                        geometry
#>    <chr>    <chr>                                               <LINESTRING [°]>
#>  1 3895636  Transport infrastructur~    (-2.281549 53.34606, -2.279685 53.34696)
#>  2 4232478  Transport infrastructur~ (-2.278362 53.3486, -2.27842 53.34866, -2.~
#>  3 4232479  Transport infrastructur~ (-2.276804 53.3506, -2.276921 53.35051, -2~
#>  4 4232481  Transport infrastructur~ (-2.274688 53.3498, -2.274816 53.3503, -2.~
#>  5 4232482  Transport infrastructur~ (-2.272847 53.35052, -2.272565 53.35135, -~
#>  6 4232524  Transport infrastructur~ (-2.284455 53.34647, -2.284356 53.34662, -~
#>  7 4232525  Transport infrastructur~ (-2.282267 53.34622, -2.282192 53.3463, -2~
#>  8 1650301~ Barrier; Wall            (-2.263275 53.47579, -2.263011 53.47575, -~
#>  9 4196721~ Barrier; Wall               (-2.251842 53.52569, -2.251777 53.52567)
#> 10 4196722~ Barrier; Wall               (-2.251895 53.52564, -2.251853 53.52563)
#> # ... with 58,814 more rows
…
